…
Now, based on the GTD data, we can see that terror events has occurred in 204 different countries since 1970. If we use the arrange() function from the dplyr package containing within the tidyverse to sort the number of terror events per countries since 1970 in a descending order, we can see that the top five countries exposed to the terror events, along with their corresponding terror incident numbers are; Iraq - 27521, Afghanistan - 18920, Pakistan - 15504, India - 13929, Colombia - 8915.

Code

country_level_terror_events %>%
  arrange(desc(terror_events_number)) 

Output

## # A tibble: 204 × 2
## # Groups:   country_txt [204]
##    country_txt    terror_events_number
##    <chr>                         <int>
##  1 Iraq                          27521
##  2 Afghanistan                   18920
##  3 Pakistan                      15504
##  4 India                         13929
##  5 Colombia                       8915
##  6 Philippines                    8271
##  7 Peru                           6111
##  8 Yemen                          6027
##  9 Nigeria                        5550
## 10 United Kingdom                 5513
## # … with 194 more rows
…
